84. Modello LCS bivariato — psy_test
…
extract_fit(multi4_lavaan_results) |> print()

# A tibble: 1 × 8
  model chisq  npar    aic    bic   cfi  rmsea  srmr
  <chr> <dbl> <dbl>  <dbl>  <dbl> <dbl>  <dbl> <dbl>
1 1      170.    23 31411. 31522. 0.972 0.0287 0.108

Notiamo che le informazioni sull’adattamento del modello fornite da lcsm indicano che il modello di cambiamento duale si adatta bene ai dati con forti indici di adattamento globale (ad esempio, RMSEA inferiore a 0.05, CFI > 0.95).

Esaminiamo i parametri.

extract_param(multi4_lavaan_results) |> print()

# A tibble: 23 × 8
   label       estimate std.error statistic  p.value   std.lv  std.all  std.nox
   <chr>          <dbl>     <dbl>     <dbl>    <dbl>    <dbl>    <dbl>    <dbl>
 1 gamma_lx1   32.5        0.543    60.0    0         4.08     4.08     4.08   
 2 sigma2_lx1  63.8        4.90     13.0    0         1        1        1      
 3 sigma2_ux   29.6        1.71     17.3    0        29.6      0.317    0.317  
 4 alpha_g2     7.82       2.18      3.58   0.000338  2.37     2.37     2.37   
 5 sigma2_g2   10.9        8.19      1.33   0.183     1        1        1      
 6 sigma_g2lx1  0.216      6.81      0.0317 0.975     0.00819  0.00819  0.00819
 7 beta_x      -0.00771    0.0563   -0.137  0.891    -0.0186  -0.0186  -0.0186 
 8 phi_x        4.73       3.30      1.43   0.152     3.89     3.89     3.89   
 9 gamma_ly1   33.8        0.422    80.1    0         3.53     3.53     3.53   
10 sigma2_ly1  91.5        9.02     10.1    0         1        1        1      
# ℹ 13 more rows
…
